0 0.10390625 0.5916666666666667 0.06406250000000001 0.1277777777777778
0 0.59296875 0.45833333333333337 0.0484375 0.08888888888888889
0 0.8421875000000001 0.5777777777777778 0.043750000000000004 0.11111111111111112
