0 0.429296875 0.46111111111111114 0.032031250000000004 0.0638888888888889
0 0.559765625 0.32083333333333336 0.06953125 0.15833333333333333
0 0.37226562500000004 0.4013888888888889 0.02734375 0.058333333333333334
