filename,width,height,class,xmin,ymin,xmax,ymax
video4-frame-000020.jpg,1920,1080,ccb,1233,367,1327,486
video4-frame-000020.jpg,1920,1080,ccb,1376,872,1541,1076
video4-frame-000205.jpg,1920,1080,ccb,721,398,1282,880
video4-frame-000684.jpg,1920,1080,csb,855,200,1137,653
video4-frame-000644.jpg,1920,1080,csb,561,196,704,396
video4-frame-000025.jpg,1920,1080,ccb,519,241,802,543
video4-frame-000786.jpg,1920,1080,csb,831,176,1200,731
video4-frame-000558.jpg,1920,1080,csb,1100,153,1325,498
video4-frame-000735.jpg,1920,1080,csb,1063,284,1319,557
video4-frame-000825.jpg,1920,1080,csb,788,31,1310,841
video4-frame-000585.jpg,1920,1080,ccb,845,121,1112,567
video4-frame-000021.jpg,1920,1080,ccb,1382,855,1557,1080
video4-frame-000021.jpg,1920,1080,ccb,1233,349,1331,463
video4-frame-000167.jpg,1920,1080,ccb,382,600,451,686
video4-frame-000007.jpg,1920,1080,ccb,951,145,1094,327
video4-frame-000534.jpg,1920,1080,csb,943,163,1231,580
video4-frame-000584.jpg,1920,1080,ccb,829,116,1119,563
video4-frame-000217.jpg,1920,1080,csb,380,288,600,570
video4-frame-000217.jpg,1920,1080,csb,1227,270,1545,721
video4-frame-000131.jpg,1920,1080,ccb,233,167,502,559
video4-frame-000131.jpg,1920,1080,ccb,1000,333,1174,565
video4-frame-000131.jpg,1920,1080,ccb,1229,255,1488,567
video4-frame-000158.jpg,1920,1080,ccb,927,190,1019,298
video4-frame-000027.jpg,1920,1080,ccb,484,255,857,629
video4-frame-000157.jpg,1920,1080,ccb,965,216,1051,314
video4-frame-000561.jpg,1920,1080,csb,1086,167,1288,508
video4-frame-000611.jpg,1920,1080,csb,833,169,1045,508
video4-frame-000267.jpg,1920,1080,csb,680,94,1127,761
video4-frame-000038.jpg,1920,1080,ccb,1217,90,1433,323
video4-frame-000590.jpg,1920,1080,ccb,816,147,1086,563
video4-frame-000031.jpg,1920,1080,csb,1016,339,1072,431
video4-frame-000031.jpg,1920,1080,csb,896,292,967,386
video4-frame-000519.jpg,1920,1080,csb,563,212,716,392
video4-frame-000519.jpg,1920,1080,ccb,1086,147,1484,610
video4-frame-000661.jpg,1920,1080,csb,580,216,700,392
video4-frame-000208.jpg,1920,1080,csb,737,219,1045,557
video4-frame-000159.jpg,1920,1080,ccb,955,165,1055,263
video4-frame-000014.jpg,1920,1080,ccb,990,308,1117,502
video4-frame-000521.jpg,1920,1080,ccb,1088,137,1457,580
video4-frame-000521.jpg,1920,1080,csb,565,235,704,382
video4-frame-000036.jpg,1920,1080,ccb,1112,155,1212,280
video4-frame-000036.jpg,1920,1080,ccb,763,341,927,482
video4-frame-000036.jpg,1920,1080,ccb,404,210,612,467
video4-frame-000015.jpg,1920,1080,csb,1129,157,1470,574
video4-frame-000625.jpg,1920,1080,csb,678,170,902,555
video4-frame-000040.jpg,1920,1080,ccb,743,208,1263,833
video4-frame-000019.jpg,1920,1080,ccb,1223,376,1304,506
video4-frame-000019.jpg,1920,1080,ccb,1337,882,1515,1080
video4-frame-000734.jpg,1920,1080,csb,1065,294,1310,539
video4-frame-000204.jpg,1920,1080,ccb,810,390,1329,894
video4-frame-000732.jpg,1920,1080,csb,1114,300,1382,590
video4-frame-000039.jpg,1920,1080,csb,1247,551,1353,729
video4-frame-000039.jpg,1920,1080,ccb,1243,53,1451,310
video4-frame-000139.jpg,1920,1080,ccb,1494,451,1635,594
video4-frame-000139.jpg,1920,1080,ccb,1221,270,1290,343
video4-frame-000001.jpg,1920,1080,ccb,794,186,867,300
video4-frame-000001.jpg,1920,1080,csb,498,325,549,382
video4-frame-000740.jpg,1920,1080,csb,768,261,1084,753
video4-frame-000280.jpg,1920,1080,csb,684,90,1123,737
video4-frame-000047.jpg,1920,1080,ccb,1047,29,1257,335
video4-frame-000156.jpg,1920,1080,ccb,994,216,1080,314
video4-frame-000170.jpg,1920,1080,ccb,200,29,1496,1045
video4-frame-000018.jpg,1920,1080,ccb,876,210,963,325
video4-frame-000018.jpg,1920,1080,ccb,1021,194,1112,304
video4-frame-000018.jpg,1920,1080,ccb,1229,147,1333,294
video4-frame-000018.jpg,1920,1080,ccb,165,229,247,333
video4-frame-000018.jpg,1920,1080,ccb,282,219,361,316
video4-frame-000013.jpg,1920,1080,ccb,957,314,1084,512
video4-frame-000046.jpg,1920,1080,ccb,1061,131,1225,382
video4-frame-000050.jpg,1920,1080,ccb,372,212,570,427
video4-frame-000127.jpg,1920,1080,ccb,1270,145,1580,621
video4-frame-000127.jpg,1920,1080,ccb,443,394,717,821
video4-frame-000127.jpg,1920,1080,ccb,621,274,710,398
video4-frame-000127.jpg,1920,1080,ccb,96,294,212,419
video4-frame-000388.jpg,1920,1080,csb,384,298,645,665
video4-frame-000388.jpg,1920,1080,csb,1249,243,1545,739
video4-frame-000621.jpg,1920,1080,csb,876,174,1090,516
video4-frame-000737.jpg,1920,1080,csb,712,255,1045,757
video4-frame-000029.jpg,1920,1080,csb,925,394,988,480
video4-frame-000029.jpg,1920,1080,csb,772,302,833,384
video4-frame-000034.jpg,1920,1080,ccb,525,208,721,433
video4-frame-000034.jpg,1920,1080,ccb,847,333,1006,461
video4-frame-000034.jpg,1920,1080,ccb,1180,155,1267,263
video4-frame-000225.jpg,1920,1080,csb,1245,265,1559,725
video4-frame-000225.jpg,1920,1080,csb,365,314,639,674
video4-frame-000575.jpg,1920,1080,csb,845,108,1141,582
video4-frame-000321.jpg,1920,1080,csb,667,72,1137,796
video4-frame-000194.jpg,1920,1080,csb,1086,196,1233,351
video4-frame-000603.jpg,1920,1080,ccb,951,147,1263,661
video4-frame-000122.jpg,1920,1080,ccb,819,361,1070,602
video4-frame-000011.jpg,1920,1080,ccb,6,6,800,1076
video4-frame-000017.jpg,1920,1080,ccb,1129,163,1217,296
video4-frame-000017.jpg,1920,1080,ccb,910,249,1010,359
video4-frame-000017.jpg,1920,1080,ccb,772,196,857,290
video4-frame-000017.jpg,1920,1080,ccb,451,239,533,359
video4-frame-000207.jpg,1920,1080,ccb,733,380,1323,908
video4-frame-000544.jpg,1920,1080,csb,602,131,816,480
video4-frame-000215.jpg,1920,1080,csb,806,165,1135,569
video4-frame-000595.jpg,1920,1080,ccb,984,159,1290,653
video4-frame-000134.jpg,1920,1080,ccb,317,49,721,637
video4-frame-000134.jpg,1920,1080,ccb,949,294,1176,559
video4-frame-000030.jpg,1920,1080,csb,929,302,992,384
video4-frame-000030.jpg,1920,1080,csb,1023,369,1072,461
video4-frame-000294.jpg,1920,1080,csb,676,80,1123,729
video4-frame-000682.jpg,1920,1080,csb,755,208,1025,647
video4-frame-000599.jpg,1920,1080,ccb,982,131,1290,618
video4-frame-000532.jpg,1920,1080,csb,970,131,1223,559
video4-frame-000592.jpg,1920,1080,ccb,990,147,1284,655
video4-frame-000160.jpg,1920,1080,ccb,908,112,1008,231
video4-frame-000213.jpg,1920,1080,csb,819,192,1157,604
video4-frame-000214.jpg,1920,1080,csb,821,174,1153,584
video4-frame-000016.jpg,1920,1080,csb,1151,167,1461,586
video4-frame-000163.jpg,1920,1080,ccb,761,365,847,443
video4-frame-000035.jpg,1920,1080,ccb,463,221,659,463
video4-frame-000035.jpg,1920,1080,ccb,798,335,945,474
video4-frame-000035.jpg,1920,1080,ccb,1135,153,1241,276
video4-frame-000211.jpg,1920,1080,csb,710,174,1078,584
video4-frame-000570.jpg,1920,1080,csb,863,121,1137,580
video4-frame-000049.jpg,1920,1080,ccb,353,249,612,451
video4-frame-000209.jpg,1920,1080,csb,723,184,1067,588
video4-frame-000800.jpg,1920,1080,csb,833,153,1198,714
video4-frame-000212.jpg,1920,1080,csb,721,184,1074,598
video4-frame-000041.jpg,1920,1080,ccb,763,176,1310,865
video4-frame-000697.jpg,1920,1080,csb,792,161,1157,776
video4-frame-000005.jpg,1920,1080,ccb,951,212,1094,367
video4-frame-000003.jpg,1920,1080,ccb,359,129,433,259
video4-frame-000003.jpg,1920,1080,ccb,702,157,778,274
video4-frame-000003.jpg,1920,1080,csb,488,316,537,382
video4-frame-000533.jpg,1920,1080,csb,951,170,1223,616
video4-frame-000616.jpg,1920,1080,csb,847,192,1067,521
video4-frame-000168.jpg,1920,1080,csb,727,625,776,692
video4-frame-000168.jpg,1920,1080,ccb,392,594,455,678
video4-frame-000129.jpg,1920,1080,ccb,1161,186,1502,672
video4-frame-000129.jpg,1920,1080,ccb,384,376,684,818
video4-frame-000129.jpg,1920,1080,ccb,133,316,249,461
video4-frame-000549.jpg,1920,1080,csb,602,157,812,480
video4-frame-000216.jpg,1920,1080,csb,1229,241,1570,729
video4-frame-000216.jpg,1920,1080,csb,372,314,602,610
video4-frame-000628.jpg,1920,1080,csb,657,178,894,543
