filename,width,height,class,xmin,ymin,xmax,ymax
Video10-frame-000613.jpg,1920,1080,csb,1304,88,1457,309
Video10-frame-000469.jpg,1920,1080,csb,625,202,778,418
Video10-frame-000112.jpg,1920,1080,ccb,590,234,825,609
Video10-frame-000035.jpg,1920,1080,ccb,597,1,769,248
Video10-frame-000560.jpg,1920,1080,csb,1123,62,1253,265
Video10-frame-000381.jpg,1920,1080,csb,902,148,1085,393
Video10-frame-000378.jpg,1920,1080,csb,832,153,1004,407
Video10-frame-000380.jpg,1920,1080,csb,881,146,1064,383
Video10-frame-000126.jpg,1920,1080,ccb,641,239,890,625
Video10-frame-000621.jpg,1920,1080,csb,1160,88,1292,288
Video10-frame-000511.jpg,1920,1080,csb,720,172,806,309
Video10-frame-000205.jpg,1920,1080,ccb,353,130,469,300
Video10-frame-000114.jpg,1920,1080,ccb,616,232,818,595
Video10-frame-000113.jpg,1920,1080,ccb,613,241,818,602
Video10-frame-000616.jpg,1920,1080,csb,1281,88,1420,302
Video10-frame-000132.jpg,1920,1080,ccb,681,183,939,562
Video10-frame-000289.jpg,1920,1080,ccb,297,93,425,272
Video10-frame-000581.jpg,1920,1080,csb,1129,97,1259,295
Video10-frame-000619.jpg,1920,1080,csb,1202,88,1332,293
Video10-frame-000577.jpg,1920,1080,csb,1160,90,1290,283
Video10-frame-000015.jpg,1920,1080,ccb,488,130,630,358
Video10-frame-000144.jpg,1920,1080,ccb,639,48,890,407
Video10-frame-000472.jpg,1920,1080,csb,649,213,795,411
Video10-frame-000033.jpg,1920,1080,ccb,564,1,730,244
Video10-frame-000609.jpg,1920,1080,csb,1176,111,1292,286
Video10-frame-000265.jpg,1920,1080,ccb,272,102,409,285
Video10-frame-000029.jpg,1920,1080,ccb,560,83,742,329
Video10-frame-000476.jpg,1920,1080,csb,800,244,916,411
Video10-frame-000589.jpg,1920,1080,csb,1141,88,1278,286
Video10-frame-000317.jpg,1920,1080,ccb,272,51,430,276
Video10-frame-000467.jpg,1920,1080,csb,623,209,771,423
Video10-frame-000037.jpg,1920,1080,ccb,558,1,746,227
Video10-frame-000645.jpg,1920,1080,csb,1313,177,1425,354
Video10-frame-000471.jpg,1920,1080,csb,644,209,792,411
Video10-frame-000031.jpg,1920,1080,ccb,558,1,713,288
Video10-frame-000180.jpg,1920,1080,ccb,374,104,488,274
Video10-frame-000379.jpg,1920,1080,csb,850,156,1036,393
Video10-frame-000374.jpg,1920,1080,csb,741,167,867,411
Video10-frame-000207.jpg,1920,1080,ccb,369,134,481,288
Video10-frame-000373.jpg,1920,1080,csb,737,169,855,404
Video10-frame-000032.jpg,1920,1080,ccb,550,1,711,255
Video10-frame-000639.jpg,1920,1080,csb,1313,207,1423,351
Video10-frame-000139.jpg,1920,1080,ccb,604,116,911,541
Video10-frame-000318.jpg,1920,1080,ccb,275,48,431,283
Video10-frame-000266.jpg,1920,1080,ccb,285,123,402,286
Video10-frame-000124.jpg,1920,1080,ccb,695,227,939,639
Video10-frame-000635.jpg,1920,1080,csb,1306,167,1423,341
Video10-frame-000591.jpg,1920,1080,csb,1146,79,1262,290
Video10-frame-000650.jpg,1920,1080,csb,1320,162,1430,344
Video10-frame-000646.jpg,1920,1080,csb,1311,181,1409,334
Video10-frame-000590.jpg,1920,1080,csb,1150,79,1283,286
Video10-frame-000030.jpg,1920,1080,ccb,562,51,748,309
Video10-frame-000649.jpg,1920,1080,csb,1313,169,1420,341
Video10-frame-000034.jpg,1920,1080,ccb,577,1,764,251
Video10-frame-000473.jpg,1920,1080,csb,676,225,811,418
Video10-frame-000554.jpg,1920,1080,csb,1083,72,1199,269
Video10-frame-000637.jpg,1920,1080,csb,1302,179,1420,355
Video10-frame-000133.jpg,1920,1080,ccb,667,183,916,551
Video10-frame-000611.jpg,1920,1080,csb,1264,86,1404,290
Video10-frame-000140.jpg,1920,1080,ccb,588,127,888,547
Video10-frame-000651.jpg,1920,1080,csb,1313,179,1425,332
Video10-frame-000651.jpg,1920,1080,csb,423,109,530,279
Video10-frame-000130.jpg,1920,1080,ccb,685,183,967,597
Video10-frame-000013.jpg,1920,1080,ccb,569,153,702,351
Video10-frame-000138.jpg,1920,1080,ccb,655,130,918,539
Video10-frame-000475.jpg,1920,1080,csb,769,244,892,411
Video10-frame-000001.jpg,1920,1080,ccb,662,118,797,330
Video10-frame-000555.jpg,1920,1080,csb,1106,67,1223,251
Video10-frame-000470.jpg,1920,1080,csb,637,204,795,411
Video10-frame-000640.jpg,1920,1080,csb,1311,190,1427,362
Video10-frame-000194.jpg,1920,1080,ccb,355,116,471,302
Video10-frame-000587.jpg,1920,1080,csb,1134,102,1269,309
Video10-frame-000474.jpg,1920,1080,csb,732,225,850,400
Video10-frame-000558.jpg,1920,1080,csb,1113,71,1257,269
Video10-frame-000127.jpg,1920,1080,ccb,657,188,937,609
Video10-frame-000036.jpg,1920,1080,ccb,582,1,767,237
Video10-frame-000143.jpg,1920,1080,ccb,616,60,848,432
Video10-frame-000382.jpg,1920,1080,csb,964,167,1134,404
Video10-frame-000612.jpg,1920,1080,csb,1299,88,1444,302
Video10-frame-000221.jpg,1920,1080,ccb,269,76,411,267
Video10-frame-000128.jpg,1920,1080,ccb,646,151,979,600
Video10-frame-000580.jpg,1920,1080,csb,1155,100,1283,283
Video10-frame-000620.jpg,1920,1080,csb,1178,86,1309,286
Video10-frame-000641.jpg,1920,1080,csb,1316,190,1420,358
Video10-frame-000512.jpg,1920,1080,csb,683,183,771,304
Video10-frame-000643.jpg,1920,1080,csb,1318,190,1425,351
Video10-frame-000633.jpg,1920,1080,csb,1309,165,1423,330
Video10-frame-000633.jpg,1920,1080,csb,334,79,455,276
Video10-frame-000576.jpg,1920,1080,csb,1155,95,1285,286
Video10-frame-000131.jpg,1920,1080,ccb,676,181,927,583
Video10-frame-000588.jpg,1920,1080,csb,1139,100,1285,290
Video10-frame-000193.jpg,1920,1080,ccb,341,114,462,295
Video10-frame-000478.jpg,1920,1080,csb,862,230,955,390
Video10-frame-000477.jpg,1920,1080,csb,830,234,927,395
Video10-frame-000204.jpg,1920,1080,ccb,353,118,469,300
Video10-frame-000125.jpg,1920,1080,ccb,648,248,897,632
Video10-frame-000191.jpg,1920,1080,ccb,357,109,467,288
Video10-frame-000561.jpg,1920,1080,csb,1118,90,1213,267
Video10-frame-000642.jpg,1920,1080,csb,1320,183,1425,358
Video10-frame-000468.jpg,1920,1080,csb,613,204,767,411
Video10-frame-000632.jpg,1920,1080,csb,1306,153,1402,323
Video10-frame-000632.jpg,1920,1080,csb,323,86,434,258
Video10-frame-000575.jpg,1920,1080,csb,1141,95,1260,290
Video10-frame-000038.jpg,1920,1080,ccb,527,1,720,211
Video10-frame-000557.jpg,1920,1080,csb,1109,58,1241,258
Video10-frame-000610.jpg,1920,1080,csb,1225,86,1353,297
Video10-frame-000196.jpg,1920,1080,ccb,367,109,481,302
Video10-frame-000644.jpg,1920,1080,csb,1325,183,1427,355
Video10-frame-000222.jpg,1920,1080,ccb,260,81,399,255
Video10-frame-000141.jpg,1920,1080,ccb,567,118,855,511
Video10-frame-000615.jpg,1920,1080,csb,1306,90,1439,293
Video10-frame-000372.jpg,1920,1080,csb,715,171,852,404
Video10-frame-000012.jpg,1920,1080,ccb,574,125,727,353
Video10-frame-000181.jpg,1920,1080,ccb,374,104,495,300
Video10-frame-000647.jpg,1920,1080,csb,1312,167,1419,337
