filename,width,height,class,xmin,ymin,xmax,ymax
video9-frame-000278.jpg,1280,720,ccb,418,170,664,471
video9-frame-000028.jpg,1280,720,csb,313,207,430,349
video9-frame-000140.jpg,1280,720,ccb,576,177,821,484
video9-frame-000136.jpg,1280,720,ccb,596,215,825,480
video9-frame-000232.jpg,1280,720,ccb,790,123,854,218
video9-frame-000193.jpg,1280,720,ccb,451,306,486,364
video9-frame-000193.jpg,1280,720,ccb,563,315,594,359
video9-frame-000193.jpg,1280,720,ccb,237,337,294,416
video9-frame-000127.jpg,1280,720,ccb,574,198,815,474
video9-frame-000196.jpg,1280,720,ccb,467,315,504,368
video9-frame-000196.jpg,1280,720,ccb,578,311,602,357
video9-frame-000196.jpg,1280,720,ccb,677,303,709,337
video9-frame-000196.jpg,1280,720,ccb,251,335,311,413
video9-frame-000196.jpg,1280,720,ccb,195,290,235,335
video9-frame-000270.jpg,1280,720,ccb,626,207,838,461
video9-frame-000299.jpg,1280,720,ccb,1168,41,1280,250
video9-frame-000083.jpg,1280,720,ccb,655,216,734,311
video9-frame-000083.jpg,1280,720,ccb,533,263,569,316
video9-frame-000210.jpg,1280,720,ccb,173,237,367,484
video9-frame-000210.jpg,1280,720,ccb,465,192,580,353
video9-frame-000210.jpg,1280,720,ccb,812,159,954,381
video9-frame-000210.jpg,1280,720,ccb,982,236,1098,393
video9-frame-000210.jpg,1280,720,ccb,1205,214,1280,339
video9-frame-000217.jpg,1280,720,ccb,395,40,734,577
video9-frame-000215.jpg,1280,720,ccb,994,240,1105,407
video9-frame-000215.jpg,1280,720,ccb,1202,209,1280,350
video9-frame-000215.jpg,1280,720,ccb,802,183,967,380
video9-frame-000215.jpg,1280,720,ccb,459,196,582,354
video9-frame-000215.jpg,1280,720,ccb,152,245,354,487
video9-frame-000304.jpg,1280,720,ccb,771,123,939,397
video9-frame-000218.jpg,1280,720,ccb,400,33,739,557
video9-frame-000225.jpg,1280,720,ccb,798,123,861,213
video9-frame-000237.jpg,1280,720,ccb,648,183,809,446
video9-frame-000281.jpg,1280,720,ccb,411,164,656,458
video9-frame-000206.jpg,1280,720,ccb,55,333,169,463
video9-frame-000206.jpg,1280,720,ccb,191,270,225,314
video9-frame-000206.jpg,1280,720,ccb,282,287,316,333
video9-frame-000206.jpg,1280,720,ccb,528,287,570,345
video9-frame-000206.jpg,1280,720,ccb,772,303,817,364
video9-frame-000206.jpg,1280,720,ccb,1191,272,1230,311
video9-frame-000206.jpg,1280,720,ccb,982,293,1021,338
video9-frame-000206.jpg,1280,720,ccb,705,251,738,289
video9-frame-000206.jpg,1280,720,ccb,404,274,428,303
video9-frame-000049.jpg,1280,720,csb,289,215,417,350
video9-frame-000137.jpg,1280,720,ccb,573,181,822,477
video9-frame-000129.jpg,1280,720,ccb,572,202,824,472
video9-frame-000233.jpg,1280,720,ccb,787,132,851,210
video9-frame-000250.jpg,1280,720,ccb,635,205,843,444
video9-frame-000029.jpg,1280,720,csb,309,201,437,344
video9-frame-000302.jpg,1280,720,ccb,974,118,1151,348
video9-frame-000180.jpg,1280,720,ccb,563,174,809,471
video9-frame-000144.jpg,1280,720,ccb,569,188,816,471
video9-frame-000125.jpg,1280,720,ccb,564,181,818,464
video9-frame-000235.jpg,1280,720,ccb,647,183,818,441
video9-frame-000023.jpg,1280,720,csb,267,212,406,345
video9-frame-000019.jpg,1280,720,csb,289,196,415,332
video9-frame-000005.jpg,1280,720,csb,277,201,398,348
video9-frame-000205.jpg,1280,720,ccb,28,344,137,467
video9-frame-000205.jpg,1280,720,ccb,159,276,199,320
video9-frame-000205.jpg,1280,720,ccb,252,290,293,342
video9-frame-000205.jpg,1280,720,ccb,378,268,405,303
video9-frame-000205.jpg,1280,720,ccb,741,305,790,377
video9-frame-000205.jpg,1280,720,ccb,1167,270,1198,315
video9-frame-000205.jpg,1280,720,ccb,498,284,551,350
video9-frame-000245.jpg,1280,720,ccb,632,180,820,448
video9-frame-000039.jpg,1280,720,csb,269,210,402,349
video9-frame-000001.jpg,1280,720,csb,277,198,416,341
video9-frame-000133.jpg,1280,720,ccb,591,223,842,477
video9-frame-000149.jpg,1280,720,ccb,572,186,815,477
video9-frame-000265.jpg,1280,720,ccb,626,228,821,455
video9-frame-000035.jpg,1280,720,csb,303,222,422,354
video9-frame-000082.jpg,1280,720,ccb,546,263,578,309
video9-frame-000082.jpg,1280,720,ccb,654,206,726,322
video9-frame-000082.jpg,1280,720,ccb,1038,226,1147,362
video9-frame-000009.jpg,1280,720,csb,291,198,412,349
video9-frame-000272.jpg,1280,720,ccb,402,155,654,464
video9-frame-000131.jpg,1280,720,ccb,578,209,818,485
video9-frame-000301.jpg,1280,720,ccb,1047,72,1231,311
video9-frame-000226.jpg,1280,720,ccb,789,120,867,215
video9-frame-000229.jpg,1280,720,ccb,787,122,865,215
video9-frame-000024.jpg,1280,720,csb,272,203,394,337
video9-frame-000234.jpg,1280,720,ccb,787,121,868,229
video9-frame-000086.jpg,1280,720,ccb,529,309,570,355
video9-frame-000086.jpg,1280,720,ccb,672,174,761,288
video9-frame-000086.jpg,1280,720,ccb,459,268,494,310
video9-frame-000004.jpg,1280,720,csb,280,202,403,344
video9-frame-000042.jpg,1280,720,csb,280,222,394,361
video9-frame-000085.jpg,1280,720,ccb,480,264,515,310
video9-frame-000085.jpg,1280,720,ccb,673,207,763,318
video9-frame-000216.jpg,1280,720,ccb,374,48,681,549
video9-frame-000255.jpg,1280,720,ccb,641,215,835,450
video9-frame-000253.jpg,1280,720,ccb,649,192,827,457
video9-frame-000091.jpg,1280,720,ccb,783,124,900,249
video9-frame-000091.jpg,1280,720,ccb,643,248,702,322
video9-frame-000091.jpg,1280,720,ccb,507,307,552,362
video9-frame-000091.jpg,1280,720,ccb,459,267,499,315
video9-frame-000176.jpg,1280,720,ccb,570,194,812,494
video9-frame-000025.jpg,1280,720,csb,273,218,402,351
video9-frame-000003.jpg,1280,720,csb,286,196,395,337
video9-frame-000126.jpg,1280,720,ccb,572,203,826,477
video9-frame-000190.jpg,1280,720,ccb,590,207,835,506
video9-frame-000284.jpg,1280,720,ccb,409,163,656,464
video9-frame-000013.jpg,1280,720,csb,302,224,424,349
video9-frame-000230.jpg,1280,720,ccb,790,122,861,210
video9-frame-000203.jpg,1280,720,ccb,85,287,121,323
video9-frame-000203.jpg,1280,720,ccb,187,301,225,355
video9-frame-000203.jpg,1280,720,ccb,674,306,726,374
video9-frame-000203.jpg,1280,720,ccb,1093,270,1124,314
video9-frame-000203.jpg,1280,720,ccb,307,277,338,311
video9-frame-000011.jpg,1280,720,csb,313,213,431,344
video9-frame-000303.jpg,1280,720,ccb,902,106,1074,383
video9-frame-000236.jpg,1280,720,ccb,651,187,821,435
video9-frame-000275.jpg,1280,720,ccb,426,187,660,474
video9-frame-000089.jpg,1280,720,ccb,815,123,908,245
video9-frame-000089.jpg,1280,720,ccb,628,231,674,300
video9-frame-000089.jpg,1280,720,ccb,520,302,556,358
video9-frame-000089.jpg,1280,720,ccb,442,271,486,311
