1 0.46328125000000003 0.2569444444444445 0.0328125 0.08611111111111111
0 0.61640625 0.19722222222222224 0.11406250000000001 0.26666666666666666
0 0.5953125 0.4986111111111111 0.134375 0.275
0 0.1875 0.5361111111111111 0.10625000000000001 0.22222222222222224
1 0.05 0.3680555555555556 0.07187500000000001 0.1527777777777778
