0 0.7781250000000001 0.7527777777777778 0.1625 0.3277777777777778
0 0.6531250000000001 0.11111111111111112 0.08125 0.17777777777777778
0 0.9421875000000001 0.18888888888888888 0.09062500000000001 0.17777777777777778
0 0.27187500000000003 0.11666666666666667 0.125 0.22777777777777777
0 0.1921875 0.6569444444444444 0.07187500000000001 0.16944444444444445
0 0.27890625 0.6680555555555556 0.0546875 0.125
0 0.38593750000000004 0.7555555555555555 0.07187500000000001 0.15
