1 0.43984375000000003 0.2513888888888889 0.0390625 0.08055555555555556
0 0.33125000000000004 0.29583333333333334 0.05625 0.09722222222222222
0 0.23046875 0.5375 0.1078125 0.19722222222222224
1 0.03359375 0.36388888888888893 0.06406250000000001 0.14444444444444446
0 0.5828125000000001 0.22916666666666669 0.109375 0.23611111111111113
0 0.78046875 0.4916666666666667 0.1234375 0.27222222222222225
