0 0.8268518518518518 0.49768518518518523 0.11851851851851852 0.15462962962962964
0 0.5064814814814815 0.5486111111111112 0.1814814814814815 0.20092592592592592
0 0.2587962962962963 0.5648148148148149 0.125 0.15
0 0.17546296296296296 0.30694444444444446 0.10277777777777779 0.125
0 0.2814814814814815 0.2587962962962963 0.07407407407407407 0.0712962962962963
